53.584 53.704 53.704
53.593 53.703 53.703
53.591 53.701 53.701
53.589 53.699 53.689
53.587 53.697 53.697
53.575 53.695 53.695
53.614 53.714 53.714
53.592 53.702 53.692
53.590 53.700 53.700
53.598 53.698 53.698