30.465 30.479 30.480
00.527 00.536 00.541
30.591 30.605 30.600
00.454 00.467 00.466
30.403 30.415 30.418
00.461 00.473 00.471
30.468 30.478 30.481
00.403 00.416 00.414
30.400 30.409 30.412
00.432 00.441 00.443
