34.862 34.983 34.874 34.983 34.979
33.892 34.009 34.014 33.905 34.017
33.488 33.609 33.508 33.603 33.610
33.591 33.712 33.719 33.605 33.711
33.822 33.947 33.938 33.835 33.947
34.714 34.838 34.834 34.721 34.838
33.880 33.999 34.006 33.894 34.001
33.828 33.947 33.948 33.843 33.953
33.710 33.831 33.833 33.829 33.727
33.740 33.859 33.864 33.749 33.863
