35.134 35.255 35.256 35.256 35.258
08.895 09.000 08.995 08.996 08.995
48.318 48.436 48.445 48.436 48.444
28.311 28.445 28.440 28.440 28.449
08.065 08.199 08.193 08.194 08.192
48.796 48.915 48.915 48.915 48.915
27.819 27.947 27.952 27.957 27.957
07.564 07.694 07.694 07.697 07.696
27.385 27.516 27.524 27.516 27.516
07.351 07.472 07.472 07.479 07.474
